25:null:null:com.qa.utils.TestUtils:2024-02-04-21-08-59
26:null:null:com.qa.utils.TestUtils:2024-02-04-21-18-09
25:null:null:com.qa.utils.TestUtils:2024-02-04-21-20-01
25:null:null:com.qa.utils.TestUtils:2024-02-05-16-16-24
27:null:null:com.qa.utils.TestUtils:2024-02-05-16-21-04
25:null:null:com.qa.utils.TestUtils:2024-02-06-20-27-00
28:null:null:com.qa.utils.TestUtils:2024-02-06-22-09-10
27:null:null:com.qa.utils.TestUtils:2024-02-06-22-09-10
25:null:null:com.qa.utils.TestUtils:2024-02-06-22-15-16
26:null:null:com.qa.utils.TestUtils:2024-02-06-22-15-16
27:null:null:com.qa.utils.TestUtils:2024-02-06-22-16-33
26:null:null:com.qa.utils.TestUtils:2024-02-06-22-16-33
25:null:null:com.qa.utils.TestUtils:2024-02-06-22-22-01
25:null:null:com.qa.utils.TestUtils:2024-02-06-22-25-44
27:null:null:com.qa.utils.TestUtils:2024-02-09-11-34-31
28:null:null:com.qa.utils.TestUtils:2024-02-09-11-34-31
26:null:null:com.qa.utils.TestUtils:2024-02-09-11-42-32
26:null:null:com.qa.utils.TestUtils:2024-02-09-11-50-43
25:null:null:com.qa.utils.TestUtils:2024-02-09-11-52-12
27:null:null:com.qa.utils.TestUtils:2024-02-09-12-22-32
26:null:null:com.qa.utils.TestUtils:2024-02-09-12-25-25
